Get types — get_types • childesr
…
    Value

    A `tbl` of Type data, filtered down by supplied arguments. If
  `connection` is supplied, the result remains a remote query, otherwise it
  is retrieved into a local tibble.

    Examples

# \donttest{
get_types()

#> Using current database version: '2020.1'.
#> Getting data from 7085 children in 375 corpora...
#> # A tibble: 17,897,045 x 14
#>       id gloss count speaker_role language target_child_na… target_child_age
#>    <int> <chr> <int> <chr>        <chr>    <chr>                       <dbl>
#>  1     1 mhm       1 Target_Child eng      Nathan                       78.0
#>  2     2 oh        1 Target_Child eng      Nathan                       78.0
#>  3     3 I've      1 Target_Child eng      Nathan                       78.0
#>  4     4 seen      1 Target_Child eng      Nathan                       78.0
#>  5     5 a         3 Target_Child eng      Nathan                       78.0
#>  6     6 movie     1 Target_Child eng      Nathan                       78.0
#>  7     7 of        2 Target_Child eng      Nathan                       78.0
#>  8     8 that      1 Target_Child eng      Nathan                       78.0
#>  9     9 yeah      3 Target_Child eng      Nathan                       78.0
#> 10    10 one       1 Target_Child eng      Nathan                       78.0
#> # … with 17,897,035 more rows, and 7 more variables: target_child_sex <chr>,
#> #   collection_name <chr>, collection_id <int>, corpus_id <int>,
#> #   speaker_id <int>, target_child_id <int>, transcript_id <int>
…
