Get the utterances surrounding a token(s) — get_contexts • childesr
…
      db_args
      List with host, user, and password defined

    Value

    A 'tbl' of Utterance data, filtered down by supplied arguments.

    Examples

# \donttest{
get_contexts(target_child = "Shem", token = "dog")
#> Using current database version: '2018.1'.
#> Getting data from 1 child in 1 corpus ...
#> # A tibble: 199 x 25
#>    utterance_id speaker_id utterance_order transcript_id corpus_id gloss
#>           <int>      <int>           <int>         <int>     <int> <chr>
#>  1       776315       2454              13          2765        29 dog  
#>  2       776323       2455              14          2765        29 that…
#>  3       776344       2455              16          2765        29 what…
#>  4       776378       2455              20          2765        29 is t…
#>  5       776404       2455              22          2765        29 when…
#>  6       780058       2455             156          2770        29 this…
#>  7       780102       2454             160          2770        29 fire…
#>  8       780590       2455             185          2766        29 now …
#>  9       780627       2454             187          2766        29 what…
#> 10       780644       2455             188          2766        29 he w…
#> # … with 189 more rows, and 19 more variables: num_tokens <int>, stem <chr>,
#> #   part_of_speech <chr>, speaker_code <chr>, speaker_name <chr>,
#> #   speaker_role <chr>, target_child_id <int>, target_child_age <dbl>,
#> #   target_child_name <chr>, target_child_sex <chr>, type <chr>,
#> #   media_end <dbl>, media_start <dbl>, media_unit <chr>, collection_id <int>,
#> #   collection_name <chr>, num_morphemes <int>, language <chr>,
#> #   corpus_name <chr>
…
