…
The
[`get_sql_query()`](https://langcog.github.io/childesr/reference/get_sql_query.md)
function returns a table from a SQL query run on the specified database.
For example, if you wanted to see the top 10 corpora in the `Eng-NA`
collection with the highest count of token for “dog”, you could run the
following call.

``` r
d_na_dog <- get_sql_query("SELECT corpus_name, COUNT(id) AS count FROM token WHERE collection_name = 'Eng-NA' AND gloss = 'dog' GROUP BY corpus_name")

dplyr::arrange(d_na_dog, desc(count))
```

    ## # A tibble: 55 × 2
    ##    corpus_name  count
    ##    <chr>        <dbl>
    ##  1 HSLLD         1261
    ##  2 Providence     862
    ##  3 Brown          546
    ##  4 Gelman         537
    ##  5 Weist          437
    ##  6 NewmanRatner   433
    ##  7 Suppes         421
    ##  8 Hall           337
    ##  9 Brent          277
    ## 10 Davis          241
    ## # ℹ 45 more rows
